<?xml version="1.0" encoding="utf-8"?>
<!-- Generator: Adobe Illustrator 22.1.0, SVG Export Plug-In . SVG Version: 6.00 Build 0)  -->
<svg version="1.1" id="Ebene_1" xmlns="http://www.w3.org/2000/svg" xmlns:xlink="http://www.w3.org/1999/xlink" x="0px" y="0px"
	 viewBox="0 0 128 128" style="enable-background:new 0 0 128 128;" xml:space="preserve">
<g>
	<path d="M58.6,19.1H36.4c-4.9,0-12.1,3.2-12.1,12.1v22.7c0,4.9,3.2,12.1,12.1,12.1h22.2c4.9,0,12.1-3.2,12.1-12.1V31.2
		C70.8,26.3,67.5,19.1,58.6,19.1z M60.3,31.2v22.7c0,0.9-0.1,1.6-1.7,1.7H36.4c-1,0-1.6-0.1-1.6-1.7V31.2c0-1,0.1-1.6,1.6-1.7h22.2
		C59.6,29.6,60.2,29.7,60.3,31.2z"/>
	<path d="M114.9,117.5H86.7V57.9c2.5,0.1,5.1,0.6,5.8,1.2c0.7,0.6,1.1,1.8,1.1,3.4l0,35c0.3,4.6,4.1,11.4,13.3,11.4
		c9.5,0,12.9-7,12.9-11.7l0.2-55c0-0.4-0.1-0.7-0.4-1L105,24.8c-1-1.1-2.4-1.8-3.9-1.8c-1.3,0-2.6,0.5-3.5,1.3
		c-1.1,0.9-1.7,2.2-1.7,3.6c-0.1,1.4,0.4,2.8,1.4,3.8l12.4,13.8l-0.2,51.5c0,0.8-0.8,1.2-2.4,1.2c-2.3,0-2.8-1-2.9-1.3l0-34.6
		c0-6-2.6-9.5-4.8-11.3c-3.5-3.1-9.9-3.7-12.7-3.8V21.8C86.7,14.2,82.1,0,64.9,0H29.7c-1.8,0-8,0.3-13.6,4.4
		c-3.7,2.7-8.1,7.9-8.1,17.4v104.7c0,0.8,0.7,1.5,1.5,1.5h3.2c0,0,0,0,0,0c0.2,0.1,0.4,0.1,0.6,0.1h101.7c2.9,0,5.3-2.4,5.3-5.2
		C120.1,119.9,117.8,117.5,114.9,117.5z M76.2,20v96.9l-0.1,0.6l-57.7-0.1l0-95.7c0-10.3,8.7-11.2,11.3-11.3h35.3
		C74.8,10.5,76.1,18.2,76.2,20z"/>
</g>
</svg>
